{
    "nome": "Fofinho",
    "jogador": "Dielson",
    "xp_sobrando": 15,
    "kits": [],
    "características": {
        "f": {
            "base": 3,
            "danos": [
                {
                    "nome": "Perfuração"
                }
            ],
            "modificadores": []
        },
        "h": {
            "base": 4,
            "modificadores": []
        },
        "r": {
            "base": 2,
            "modificadores": []
        },
        "a": {
            "base": 2,
            "modificadores": []
        },
        "pdf": {
            "base": 0,
            "danos": [
                {
                    "nome": "Nada"
                }
            ],
            "modificadores": []
        }
    },
    "situação": {
        "pv": {
            "atual": 10,
            "max": []
        },
        "pm": {
            "atual": 10,
            "max": []
        }
    },
    "vantagens": [
        {
            "nome": "Aceleração",
            "pontos": 1,
            "suplemento": "Manual 3D&T Alpha"
        },
        {
            "nome": "Sentidos Especiais",
            "pontos": 1,
            "suplemento": "Manual 3D&T Alpha",
            "nota": "visão, audição e olfato aguçados"
        },
        {
            "nome": "Inculto",
            "pontos": -1,
            "suplemento": "Manual 3D&T Alpha"
        }
    ],
    "perícias": [],
    "magias": [],
    "itens": [],
    "história": ""
}
